Data Processing
…
  return(output_tibble)  
}

Let’s test how this works using a ‘Default’ input, where no arguments have specific values changed from the default.

default_tibble <- user_input()

Warning: The `x` argument of `as_tibble.matrix()` must have unique column names if
`.name_repair` is omitted as of tibble 2.0.0.
ℹ Using compatibility `.name_repair`.

default_tibble

# A tibble: 3,373,378 × 4
    AGEP PWGTP SEX    Year
   <dbl> <chr> <fct> <dbl>
 1    17 3     2      2022
 2    73 42    1      2022
 3    22 11    1      2022
 4    82 32    2      2022
 5    19 31    2      2022
 6    88 32    1      2022
 7    80 45    1      2022
 8    33 37    1      2022
 9    44 29    1      2022
10    36 55    1      2022
# ℹ 3,373,368 more rows

The following is the testing of the single year function where the user specified 2021 as the year, AGEP and GRPIP as the numeric variables, and SEX and SCHL as the categorical variables. Here, the geogrphy level is not specified, so it defaults to a value of ‘All.’

user_input(x = 2021,
           y = c("AGEP", "GRPIP"),
           z = c("SEX", "SCHL"))  

# A tibble: 3,252,599 × 6
    AGEP GRPIP PWGTP SEX   SCHL   Year
   <dbl> <dbl> <chr> <fct> <fct> <dbl>
 1    36     0 35    1     11     2021
 2    19     0 35    1     19     2021
 3    57     0 70    1     22     2021
 4    29     0 149   1     14     2021
 5    26     0 177   1     1      2021
 6    80     0 14    2     21     2021
 7    47     0 14    1     16     2021
 8    80     0 95    2     14     2021
 9    21     0 31    1     19     2021
10    19     0 27    2     19     2021
# ℹ 3,252,589 more rows
…
Now, we can test this multi-year function with 2021 and 2022 data and compare it to the single year results from before of the same variables, but looking at just 2021.

multi_year_user_input(x_multi = c(2021, 2022),
                      y = c("AGEP", "GRPIP"),
                      z = c("SEX", "SCHL"))  

# A tibble: 6,625,977 × 6
    AGEP GRPIP PWGTP SEX   SCHL   Year
   <dbl> <dbl> <chr> <fct> <fct> <dbl>
 1    36     0 35    1     11     2021
 2    19     0 35    1     19     2021
 3    57     0 70    1     22     2021
 4    29     0 149   1     14     2021
 5    26     0 177   1     1      2021
 6    80     0 14    2     21     2021
 7    47     0 14    1     16     2021
 8    80     0 95    2     14     2021
 9    21     0 31    1     19     2021
10    19     0 27    2     19     2021
# ℹ 6,625,967 more rows
…
