Data Processing
…
  output_tibble$Year <- x
  
  return(output_tibble)  
}

default_tibble <- user_input()

Warning: The `x` argument of `as_tibble.matrix()` must have unique column names if
`.name_repair` is omitted as of tibble 2.0.0.
ℹ Using compatibility `.name_repair`.

default_tibble

# A tibble: 44,079 × 5
   SEX   PWGTP MAR   SCHL   Year
   <fct> <dbl> <chr> <fct> <dbl>
 1 2         6 5     24     2022
 2 2        23 2     24     2022
 3 1        23 3     24     2022
 4 1        80 5     24     2022
 5 1        16 1     24     2022
 6 1       107 3     24     2022
 7 2        10 5     24     2022
 8 1        22 1     24     2022
 9 2       127 5     24     2022
10 2        46 5     24     2022
# ℹ 44,069 more rows
